waveforms/leaky_relu_parent.vcd
$date
	Fri Oct 10 15:00:37 2025
$end
$version
	Icarus Verilog
$end
$timescale
	1ps
$end
$scope module leaky_relu_parent $end
$var wire 1 ! clk $end
$var wire 16 " lr_data_1_in [15:0] $end
$var wire 16 # lr_data_2_in [15:0] $end
$var wire 16 $ lr_leak_factor_in [15:0] $end
$var wire 1 % lr_valid_1_in $end
$var wire 1 & lr_valid_2_in $end
$var wire 1 ' rst $end
$var wire 1 ( lr_valid_2_out $end
$var wire 1 ) lr_valid_1_out $end
$var wire 16 * lr_data_2_out [15:0] $end
$var wire 16 + lr_data_1_out [15:0] $end
$scope module leaky_relu_col_1 $end
$var wire 1 ! clk $end
$var wire 16 , lr_data_in [15:0] $end
$var wire 16 - lr_leak_factor_in [15:0] $end
$var wire 1 % lr_valid_in $end
$var wire 1 ' rst $end
$var wire 16 . mul_out [15:0] $end
$var reg 16 / lr_data_out [15:0] $end
$var reg 1 ) lr_valid_out $end
$scope module mul_inst $end
$var wire 16 0 ina [15:0] $end
$var wire 16 1 inb [15:0] $end
$var wire 32 2 res [31:0] $end
$var wire 1 3 overflow $end
$var wire 16 4 out [15:0] $end
$var parameter 32 5 ROUND $end
$var parameter 32 6 WIFA $end
$var parameter 32 7 WIFB $end
$var parameter 32 8 WIIA $end
$var parameter 32 9 WIIB $end
$var parameter 32 : WOF $end
$var parameter 32 ; WOI $end
$var parameter 33 < WRF $end
$var parameter 33 = WRI $end
$scope module res_zoom $end
$var wire 32 > in [31:0] $end
$var wire 16 ? out [15:0] $end
$var parameter 32 @ ROUND $end
$var parameter 33 A WIF $end
$var parameter 33 B WII $end
$var parameter 32 C WOF $end
$var parameter 32 D WOI $end
$var reg 16 E ini [15:0] $end
$var reg 24 F inr [23:0] $end
$var reg 8 G outf [7:0] $end
$var reg 8 H outi [7:0] $end
$var reg 1 3 overflow $end
$scope begin genblk1 $end
$scope begin genblk1 $end
$upscope $end
$upscope $end
$scope begin genblk2 $end
$upscope $end
$upscope $end
$upscope $end
$upscope $end
$scope module leaky_relu_col_2 $end
$var wire 1 ! clk $end
$var wire 16 I lr_data_in [15:0] $end
$var wire 16 J lr_leak_factor_in [15:0] $end
$var wire 1 & lr_valid_in $end
$var wire 1 ' rst $end
$var wire 16 K mul_out [15:0] $end
$var reg 16 L lr_data_out [15:0] $end
$var reg 1 ( lr_valid_out $end
$scope module mul_inst $end
$var wire 16 M ina [15:0] $end
$var wire 16 N inb [15:0] $end
$var wire 32 O res [31:0] $end
$var wire 1 P overflow $end
$var wire 16 Q out [15:0] $end
$var parameter 32 R ROUND $end
$var parameter 32 S WIFA $end
$var parameter 32 T WIFB $end
$var parameter 32 U WIIA $end
$var parameter 32 V WIIB $end
$var parameter 32 W WOF $end
$var parameter 32 X WOI $end
$var parameter 33 Y WRF $end
$var parameter 33 Z WRI $end
$scope module res_zoom $end
$var wire 32 [ in [31:0] $end
$var wire 16 \ out [15:0] $end
$var parameter 32 ] ROUND $end
$var parameter 33 ^ WIF $end
$var parameter 33 _ WII $end
$var parameter 32 ` WOF $end
$var parameter 32 a WOI $end
$var reg 16 b ini [15:0] $end
$var reg 24 c inr [23:0] $end
$var reg 8 d outf [7:0] $end
$var reg 8 e outi [7:0] $end
$var reg 1 P overflow $end
$scope begin genblk1 $end
$scope begin genblk1 $end
$upscope $end
$upscope $end
$scope begin genblk2 $end
$upscope $end
$upscope $end
$upscope $end
$upscope $end
$upscope $end
$enddefinitions $end
$comment Show the parameter values. $end
$dumpall
b1000 a
b1000 `
b10000 _
b10000 ^
b1 ]
b10000 Z
b10000 Y
b1000 X
b1000 W
b1000 V
b1000 U
b1000 T
b1000 S
b1 R
b1000 D
b1000 C
b10000 B
b10000 A
b1 @
b10000 =
b10000 <
b1000 ;
b1000 :
b1000 9
b1000 8
b1000 7
b1000 6
b1 5
$end
#0
$dumpvars
b0 e
b0 d
b0 c
b0 b
b0 \
b0 [
b0 Q
0P
b0 O
b11010 N
b0 M
b0 L
b0 K
b11010 J
b0 I
b0 H
b1000001 G
b1000001 F
b0 E
b1000001 ?
b100000100000000 >
b1000001 4
03
b100000100000000 2
b11010 1
b1010000000 0
b0 /
b1000001 .
b11010 -
b1010000000 ,
b0 +
b0 *
0)
0(
0'
0&
1%
b11010 $
b0 #
b1010000000 "
1!
$end
#5000
0!
#10000
b101111 K
b101111 Q
b101111 \
b101111 d
b11111111 H
b1111111111111111 E
b1111111111100001 .
b1111111111100001 4
b1111111111100001 ?
b11100001 G
b101111 c
b111111111111111111100001 F
1&
b10111011010010 O
b10111011010010 [
b111001101 #
b111001101 I
b111001101 M
b11111111111111111110000011010010 2
b11111111111111111110000011010010 >
b1111111011001101 "
b1111111011001101 ,
b1111111011001101 0
1)
b1010000000 +
b1010000000 /
1!
#15000
0!
#20000
b11111111 e
b1111111111111111 b
b1111111111101001 K
b1111111111101001 Q
b1111111111101001 \
b11101001 d
b0 H
b0 E
b10101 .
b10101 4
b10101 ?
b10101 G
b111111111111111111101001 c
b10101 F
b11111111111111111110100010100100 O
b11111111111111111110100010100100 [
b1111111100011010 #
b1111111100011010 I
b1111111100011010 M
b1010011010010 2
b1010011010010 >
b11001101 "
b11001101 ,
b11001101 0
b1111111111100001 +
b1111111111100001 /
1(
b111001101 *
b111001101 L
1!
#25000
0!
#30000
b0 e
b0 b
b100111 K
b100111 Q
b100111 \
b100111 d
b11111111 H
b1111111111111111 E
b1111111110101111 .
b1111111110101111 4
b1111111110101111 ?
b10101111 G
b100111 c
b111111111111111110101111 F
b10011100000000 O
b10011100000000 [
b110000000 #
b110000000 I
b110000000 M
b11111111111111111010111101011100 2
b11111111111111111010111101011100 >
b1111110011100110 "
b1111110011100110 ,
b1111110011100110 0
b1111111111101001 *
b1111111111101001 L
b11001101 +
b11001101 /
1!
#35000
0!
#40000
b11111111 e
b1111111111111111 b
b1111111111000111 K
b1111111111000111 Q
b1111111111000111 \
b11000111 d
b0 H
b0 E
b0 .
b0 4
b0 ?
b0 G
b111111111111111111000111 c
b0 F
b11111111111111111100011011010010 O
b11111111111111111100011011010010 [
b1111110111001101 #
b1111110111001101 I
b1111110111001101 M
0%
b0 2
b0 >
b0 "
b0 ,
b0 0
b1111111110101111 +
b1111111110101111 /
b110000000 *
b110000000 L
1!
#45000
0!
#50000
0&
b1111111111000111 *
b1111111111000111 L
b0 +
b0 /
0)
1!
#55000
0!
#60000
b0 *
b0 L
0(
1!
#65000
0!
#70000
1!
#75000
0!
#80000
1!
#85000
0!
#90000
1!
#95000
0!
#100000
1!
#105000
0!
#110000
1!
#115000
0!
#120000
1!
#125000
0!
#130000
1!
#135000
0!
#140000
1!
#145000
0!
#150000
1!
#150001
b0 e
b0 b
b0 K
b0 Q
b0 \
b0 d
b0 c
b0 $
b0 -
b0 1
b0 J
b0 N
b0 O
b0 [
b0 #
b0 I
b0 M
1'
#155001
0!
#160001
b1000001 .
b1000001 4
b1000001 ?
b1000001 G
b1000001 F
1%
b100000100000000 2
b100000100000000 >
b1010000000 "
b1010000000 ,
b1010000000 0
b11010 $
b11010 -
b11010 1
b11010 J
b11010 N
0'
1!
#165001
0!
#170001
b11111111 H
b1111111111111111 E
b1111111111100001 .
b1111111111100001 4
b1111111111100001 ?
b11100001 G
b111111111111111111100001 F
b11111111111111111110000011010010 2
b11111111111111111110000011010010 >
b1111111011001101 "
b1111111011001101 ,
b1111111011001101 0
1)
b1010000000 +
b1010000000 /
1!
#175001
0!
#180001
b0 H
b0 E
b10101 .
b10101 4
b10101 ?
b10101 G
b10101 F
b1010011010010 2
b1010011010010 >
b11001101 "
b11001101 ,
b11001101 0
b1111111111100001 +
b1111111111100001 /
1!
#185001
0!
#190001
b11111111 H
b1111111111111111 E
b1111111110101111 .
b1111111110101111 4
b1111111110101111 ?
b10101111 G
b111111111111111110101111 F
b11111111111111111010111101011100 2
b11111111111111111010111101011100 >
b1111110011100110 "
b1111110011100110 ,
b1111110011100110 0
b11001101 +
b11001101 /
1!
#195001
0!
#200001
0%
b1111111110101111 +
b1111111110101111 /
1!
#205001
0!
#210001
b0 +
b0 /
0)
1!
#215001
0!
#220001
1!
#225001
0!
#230001
1!
#235001
0!
#240001
1!
#245001
0!
#250001
1!
#255001
0!
#260001
1!
#265001
0!
#270001
1!
#275001
0!
#280001
1!
#285001
0!
#290001
1!
#295001
0!
#300001
1!
#300002
1'
#305002
0!
#310002
b0 H
b0 E
b0 .
b0 4
b0 ?
b0 G
b0 F
1%
b0 2
b0 >
b0 "
b0 ,
b0 0
0'
1!
#315002
0!
#320002
b0 F
b11111111111111111111111110110010 2
b11111111111111111111111110110010 >
b1111111111111101 "
b1111111111111101 ,
b1111111111111101 0
1)
1!
#325002
0!
#330002
b1001110 2
b1001110 >
b11 "
b11 ,
b11 0
1!
#335002
0!
#340002
b11111111 H
b1111111111111111 E
b1111111101111110 .
b1111111101111110 4
b1111111101111110 ?
b1111110 G
b111111111111111101111110 F
b11111111111111110111111000000000 2
b11111111111111110111111000000000 >
b1111101100000000 "
b1111101100000000 ,
b1111101100000000 0
b11 +
b11 /
1!
#345002
0!
#350002
0%
b1111111101111110 +
b1111111101111110 /
1!
#355002
0!
#360002
b0 +
b0 /
0)
1!
#365002
0!
#370002
1!
#375002
0!
#380002
1!
#385002
0!
#390002
1!
#395002
0!
#400002
1!
#405002
0!
#410002
1!
#410003
1'
#415003
0!
#420003
b11111111 e
b1111111111111111 b
b1111111111001100 K
b1111111111001100 Q
b1111111111001100 \
b11001100 d
b0 H
b0 E
b100111 .
b100111 4
b100111 ?
b100111 G
b111111111111111111001100 c
b100111 F
b11111111111111111100110000000000 O
b11111111111111111100110000000000 [
b1111111000000000 #
b1111111000000000 I
b1111111000000000 M
b10011100000000 2
b10011100000000 >
b110000000 "
b110000000 ,
b110000000 0
0'
1!
#425003
0!
#430003
1%
1!
#435003
0!
#440003
1&
0%
1)
b110000000 +
b110000000 /
1!
#445003
0!
#450003
1%
b0 +
b0 /
0)
1(
b1111111111001100 *
b1111111111001100 L
1!
#455003
0!
#460003
1)
b110000000 +
b110000000 /
1!
